{
    "git.enableSmartCommit": true,
    "http.systemCertificates": true,
    "window.menuBarVisibility": "toggle", //toggled by Alt
    "workbench.iconTheme": "vscode-icons", //requires vscode-icons extension
    "editor.fontFamily": "Comic Mono", //requires Fira Code font installed
    "editor.fontSize": 15,
    "editor.fontLigatures": false,
    "editor.fontWeight": "400",
    "vsicons.dontShowNewVersionMessage": true, // Light
    "editor.detectIndentation": true, //for smaller tabs, clarity of code
    "editor.insertSpaces": true,
    "editor.tabSize": 4,
    "breadcrumbs.enabled": true, //navigation in editor
    "editor.minimap.renderCharacters": false, //minimap looks better
    "editor.minimap.maxColumn": 200, //just cool stuff
    "editor.minimap.showSlider": "always", //just cool stuff
    "editor.renderWhitespace": "all", //for clarity of code
    "editor.smoothScrolling": true, //cool scrolling
    "editor.cursorBlinking": "phase", //cool cursor animation
    "editor.cursorSmoothCaretAnimation": true, //cool cursor animation
    "files.insertFinalNewline": true, //might be usefull
    "files.trimTrailingWhitespace": true, //might be usefull
    "telemetry.enableCrashReporter": false, //not gonna feed microsoft with info
    "telemetry.enableTelemetry": false,
    "workbench.settings.enableNaturalLanguageSearch": false,
    "workbench.colorCustomizations": {
        //colour of cursor
        "editorCursor.foreground": "#ffbc2c",
        "terminalCursor.foreground": "#ffbc2c"
    },
    "workbench.tree.indent": 20,
    "rust-analyzer.inlayHints.chainingHints": false,
    "rust-analyzer.inlayHints.parameterHints": false,
    "rust-analyzer.inlayHints.typeHints": false,
    "vetur.experimental.templateInterpolationService": true,
    "[yaml]": {
        "editor.defaultFormatter": "esbenp.prettier-vscode"
    },
    "extensions.ignoreRecommendations": true,
    "tabnine.experimentalAutoImports": true,
    "omnisharp.useEditorFormattingSettings": false,
    "[vue]": {
        "editor.defaultFormatter": "octref.vetur"
    },
    "[html]": {
        "editor.defaultFormatter": "vscode.html-language-features"
    },
    "[typescript]": {
        "editor.defaultFormatter": "esbenp.prettier-vscode"
    },
    "csharp.referencesCodeLens.enabled": false,
    "security.workspace.trust.untrustedFiles": "open",
    "workbench.editor.untitled.hint": "hidden",
    "[json]": {
        "editor.defaultFormatter": "vscode.json-language-features"
    },
    "[javascript]": {
        "editor.defaultFormatter": "esbenp.prettier-vscode"
    },
    "editor.formatOnSave": true,
    "[svelte]": {
        "editor.defaultFormatter": "esbenp.prettier-vscode"
    },
    "workbench.colorTheme": "Ayu Mirage Bordered",
    "gitlab.ignoreCertificateErrors": true,
    "prettier.tabWidth": 4,
    "csv-preview.separator": ";",
    "omnisharp.dotnetPath": "/home/dvrtel/.dotnet/",
    "omnisharp.useModernNet": true
}
